…
In my simulation, while applicants submit ranks for all the interviewed sites, each sites submits for only top 30 preferred applicants because they may not want to offer internship to some applicants. (In real world, applicants also may not submit ranks for some sites that they do not want to go. So, interview is from both ends.) I purely randomly generate site’s rank order list, although in real world some applicants may be highly preferred by multiple sites.

site_rank_list <- applicant_rank_list %>%
  select(-applicant_provided_rank) %>%
  group_by(site_id) %>%
  mutate(site_provided_rank = sample.int(n(), n())) %>%
  filter(site_provided_rank <= n_rank_per_site) %>%
  ungroup() %>%
  arrange(site_id, site_provided_rank)  

Below shows a rank order list from the first site.

site_rank_list %>% filter(site_id == 1)

## # A tibble: 30 x 3
##    applicant_id site_id site_provided_rank
##           <int>   <int>              <int>
##  1          912       1                  1
##  2          965       1                  2
##  3          862       1                  3
##  4          120       1                  4
##  5          534       1                  5
##  6          352       1                  6
##  7          361       1                  7
##  8          499       1                  8
##  9          169       1                  9
## 10           91       1                 10
## # ... with 20 more rows
…
